%YAML 1.1
%TAG !u! tag:unity3d.com,2011:
--- !u!1045 &1
EditorBuildSettings:
  m_ObjectHideFlags: 0
  serializedVersion: 2
  m_Scenes:
  - enabled: 1
    path: Assets/Scenes/MainMenu.unity
    guid: 33e2a606654313f4ba424ee982afaea8
  - enabled: 1
    path: Assets/Scenes/InGame.unity
    guid: 46b11a433f192e640b885b34dc11dd30
  m_configObjects:
    com.unity.xr.management.loader_settings: {fileID: 11400000, guid: ede88e257d0d33548980caf158e76583,
      type: 2}
